{"ts":1779953742287,"data":{"pagination":{"last_visible_page":59,"has_next_page":true,"current_page":1,"items":{"count":8,"total":470,"per_page":8}},"data":[{"mal_id":10163,"url":"https://myanimelist.net/anime/10163/C__The_Money_of_Soul_and_Possibility_Control","images":{"jpg":{"image_url":"https://cdn.myanimelist.net/images/anime/5/50551.jpg","small_image_url":"https://cdn.myanimelist.net/images/anime/5/50551t.jpg","large_image_url":"https://cdn.myanimelist.net/images/anime/5/50551l.jpg"},"webp":{"image_url":"https://cdn.myanimelist.net/images/anime/5/50551.webp","small_image_url":"https://cdn.myanimelist.net/images/anime/5/50551t.webp","large_image_url":"https://cdn.myanimelist.net/images/anime/5/50551l.webp"}},"trailer":{"youtube_id":null,"url":null,"embed_url":"https://www.youtube-nocookie.com/embed/eWf7pYnSjNk?enablejsapi=1&wmode=opaque&autoplay=1","images":{"image_url":null,"small_image_url":null,"medium_image_url":null,"large_image_url":null,"maximum_image_url":null}},"approved":true,"titles":[{"type":"Default","title":"C: The Money of Soul and Possibility Control"},{"type":"Synonym","title":"[C] The Money of Soul and Possibility Control"},{"type":"Japanese","title":"「C」 THE MONEY OF SOUL AND POSSIBILITY CONTROL"},{"type":"English","title":"[C] CONTROL - The Money and Soul of Possibility"},{"type":"French","title":"C-Control : The Money of Soul and Possibility"}],"title":"C: The Money of Soul and Possibility Control","title_english":"[C] CONTROL - The Money and Soul of Possibility","title_japanese":"「C」 THE MONEY OF SOUL AND POSSIBILITY CONTROL","title_synonyms":["[C] The Money of Soul and Possibility Control"],"type":"TV","source":"Original","episodes":11,"status":"Finished Airing","airing":false,"aired":{"from":"2011-04-15T00:00:00+00:00","to":"2011-06-24T00:00:00+00:00","prop":{"from":{"day":15,"month":4,"year":2011},"to":{"day":24,"month":6,"year":2011}},"string":"Apr 15, 2011 to Jun 24, 2011"},"duration":"22 min per ep","rating":"PG-13 - Teens 13 or older","score":7.15,"scored_by":155663,"rank":4357,"popularity":821,"members":341597,"favorites":1383,"synopsis":"Money is power, and without it, life is meaningless. In a country whose economy is in shambles, second-year economics university student Kimimaro Yoga understands this fact all too well, as he is surrounded by the relatively luxurious lives of his peers and struggling to make ends meet. However, his world is turned on its head when a stranger in a top hat arrives one late night at his door.\n\nGoing by the name Masakaki, the visitor petitions Yoga to come to the Eastern Financial District, a place where money flows in abundance if one offers their \"future\" as collateral. Although reluctant, greed triumphs reason and Yoga accepts the offer, thus taking on the mantle of an Entre. But unbeknownst to him, the land of wealth he has entered is an alternate realm built in the likeness of his own, where Entres are forced to participate in weekly duels called Deals, with their collateral at stake. Pitted against his countrymen and fate, Yoga must quickly adapt in this new world if he hopes to protect his fortune and future—and discover just how much money is truly worth.\n\n[Written by MAL Rewrite]","background":"","season":"spring","year":2011,"broadcast":{"day":"Fridays","time":"00:45","timezone":"Asia/Tokyo","string":"Fridays at 00:45 (JST)"},"producers":[{"mal_id":53,"type":"anime","name":"Dentsu","url":"https://myanimelist.net/anime/producer/53/Dentsu"},{"mal_id":169,"type":"anime","name":"Fuji TV","url":"https://myanimelist.net/anime/producer/169/Fuji_TV"},{"mal_id":245,"type":"anime","name":"TOHO","url":"https://myanimelist.net/anime/producer/245/TOHO"},{"mal_id":757,"type":"anime","name":"Sony Music Entertainment","url":"https://myanimelist.net/anime/producer/757/Sony_Music_Entertainment"},{"mal_id":769,"type":"anime","name":"Fujipacific Music","url":"https://myanimelist.net/anime/producer/769/Fujipacific_Music"}],"licensors":[{"mal_id":102,"type":"anime","name":"Funimation","url":"https://myanimelist.net/anime/producer/102/Funimation"}],"studios":[{"mal_id":103,"type":"anime","name":"Tatsunoko Production","url":"https://myanimelist.net/anime/producer/103/Tatsunoko_Production"}],"genres":[{"mal_id":1,"type":"anime","name":"Action","url":"https://myanimelist.net/anime/genre/1/Action"},{"mal_id":7,"type":"anime","name":"Mystery","url":"https://myanimelist.net/anime/genre/7/Mystery"},{"mal_id":24,"type":"anime","name":"Sci-Fi","url":"https://myanimelist.net/anime/genre/24/Sci-Fi"},{"mal_id":41,"type":"anime","name":"Suspense","url":"https://myanimelist.net/anime/genre/41/Suspense"}],"explicit_genres":[],"themes":[{"mal_id":59,"type":"anime","name":"High Stakes Game","url":"https://myanimelist.net/anime/genre/59/High_Stakes_Game"},{"mal_id":31,"type":"anime","name":"Super Power","url":"https://myanimelist.net/anime/genre/31/Super_Power"}],"demographics":[]},{"mal_id":51306,"url":"https://myanimelist.net/anime/51306/C_Danchi","images":{"jpg":{"image_url":"https://cdn.myanimelist.net/images/anime/1378/121573.jpg","small_image_url":"https://cdn.myanimelist.net/images/anime/1378/121573t.jpg","large_image_url":"https://cdn.myanimelist.net/images/anime/1378/121573l.jpg"},"webp":{"image_url":"https://cdn.myanimelist.net/images/anime/1378/121573.webp","small_image_url":"https://cdn.myanimelist.net/images/anime/1378/121573t.webp","large_image_url":"https://cdn.myanimelist.net/images/anime/1378/121573l.webp"}},"trailer":{"youtube_id":null,"url":null,"embed_url":"https://www.youtube-nocookie.com/embed/zhyGKfW8Sv4?enablejsapi=1&wmode=opaque&autoplay=1","images":{"image_url":null,"small_image_url":null,"medium_image_url":null,"large_image_url":null,"maximum_image_url":null}},"approved":true,"titles":[{"type":"Default","title":"C Danchi"},{"type":"Japanese","title":"C団地"},{"type":"English","title":"Housing Complex C"}],"title":"C Danchi","title_english":"Housing Complex C","title_japanese":"C団地","title_synonyms":[],"type":"TV","source":"Original","episodes":4,"status":"Finished Airing","airing":false,"aired":{"from":"2022-10-02T00:00:00+00:00","to":"2022-10-23T00:00:00+00:00","prop":{"from":{"day":2,"month":10,"year":2022},"to":{"day":23,"month":10,"year":2022}},"string":"Oct 2, 2022 to Oct 23, 2022"},"duration":"25 min per ep","rating":"R - 17+ (violence & profanity)","score":5.46,"scored_by":12482,"rank":13363,"popularity":4310,"members":36296,"favorites":170,"synopsis":"\"Housing Complex C\" centers around Kimi, who lives in a small, low-cost housing complex located in the seaside town of Kurosaki. Trouble seems to follow her wherever she goes, and horrific incidents begin to occur. Is an ancient evil stalking the residents of Housing Complex C? \n\n(Source: Variety, edited)","background":"","season":"fall","year":2022,"broadcast":{"day":"Sundays","time":"13:00","timezone":"Asia/Tokyo","string":"Sundays at 13:00 (JST)"},"producers":[{"mal_id":10,"type":"anime","name":"Production I.G","url":"https://myanimelist.net/anime/producer/10/Production_IG"}],"licensors":[],"studios":[{"mal_id":2034,"type":"anime","name":"Akatsuki","url":"https://myanimelist.net/anime/producer/2034/Akatsuki"}],"genres":[{"mal_id":14,"type":"anime","name":"Horror","url":"https://myanimelist.net/anime/genre/14/Horror"}],"explicit_genres":[],"themes":[],"demographics":[]},{"mal_id":52549,"url":"https://myanimelist.net/anime/52549/C_Y","images":{"jpg":{"image_url":"https://cdn.myanimelist.net/images/anime/1360/126335.jpg","small_image_url":"https://cdn.myanimelist.net/images/anime/1360/126335t.jpg","large_image_url":"https://cdn.myanimelist.net/images/anime/1360/126335l.jpg"},"webp":{"image_url":"https://cdn.myanimelist.net/images/anime/1360/126335.webp","small_image_url":"https://cdn.myanimelist.net/images/anime/1360/126335t.webp","large_image_url":"https://cdn.myanimelist.net/images/anime/1360/126335l.webp"}},"trailer":{"youtube_id":null,"url":null,"embed_url":null,"images":{"image_url":null,"small_image_url":null,"medium_image_url":null,"large_image_url":null,"maximum_image_url":null}},"approved":true,"titles":[{"type":"Default","title":"C. Y."},{"type":"Synonym","title":"Chisa Yearning"},{"type":"Japanese","title":"C. Y."}],"title":"C. Y.","title_english":null,"title_japanese":"C. Y.","title_synonyms":["Chisa Yearning"],"type":"OVA","source":"Original","episodes":1,"status":"Finished Airing","airing":false,"aired":{"from":"1991-07-21T00:00:00+00:00","to":null,"prop":{"from":{"day":21,"month":7,"year":1991},"to":{"day":null,"month":null,"year":null}},"string":"Jul 21, 1991 to ?"},"duration":"15 min","rating":null,"score":null,"scored_by":null,"rank":15689,"popularity":23659,"members":193,"favorites":0,"synopsis":"It was a beautiful full-moon night when Chisa landed on the earth in her space ship from a garaxy far away. She is a student from another planet and was to come to the earth to have earthly friends in order to graduate university. Chisa didn't have any idea what to do and her computer brain was broken. \"Oh my gosh! The deadline is tomorrow noon!!\" How can she get out of this mess!?","background":"","season":null,"year":null,"broadcast":{"day":null,"time":null,"timezone":null,"string":null},"producers":[],"licensors":[],"studios":[],"genres":[{"mal_id":8,"type":"anime","name":"Drama","url":"https://myanimelist.net/anime/genre/8/Drama"},{"mal_id":24,"type":"anime","name":"Sci-Fi","url":"https://myanimelist.net/anime/genre/24/Sci-Fi"}],"explicit_genres":[],"themes":[],"demographics":[]},{"mal_id":16606,"url":"https://myanimelist.net/anime/16606/CLAY","images":{"jpg":{"image_url":"https://cdn.myanimelist.net/images/anime/6/44756.jpg","small_image_url":"https://cdn.myanimelist.net/images/anime/6/44756t.jpg","large_image_url":"https://cdn.myanimelist.net/images/anime/6/44756l.jpg"},"webp":{"image_url":"https://cdn.myanimelist.net/images/anime/6/44756.webp","small_image_url":"https://cdn.myanimelist.net/images/anime/6/44756t.webp","large_image_url":"https://cdn.myanimelist.net/images/anime/6/44756l.webp"}},"trailer":{"youtube_id":null,"url":null,"embed_url":null,"images":{"image_url":null,"small_image_url":null,"medium_image_url":null,"large_image_url":null,"maximum_image_url":null}},"approved":true,"titles":[{"type":"Default","title":"C.L.A.Y."},{"type":"Japanese","title":"C.L.A.Y."}],"title":"C.L.A.Y.","title_english":null,"title_japanese":"C.L.A.Y.","title_synonyms":[],"type":"ONA","source":"Original","episodes":1,"status":"Finished Airing","airing":false,"aired":{"from":"2012-05-27T00:00:00+00:00","to":null,"prop":{"from":{"day":27,"month":5,"year":2012},"to":{"day":null,"month":null,"year":null}},"string":"May 27, 2012"},"duration":"1 min","rating":"R - 17+ (violence & profanity)","score":3.6,"scored_by":2278,"rank":14968,"popularity":10738,"members":3526,"favorites":0,"synopsis":"In a gray and empty landscape, a spherical, yellow entity suddenly materializes. Though its plain appearance may not suggest much, its ability to transform is boundless, and it is not hesitant to kill. Nearby, an armed woman awaits this creature, ready to eliminate it. Will she be able to defeat it, or does this being's abilities far outclass her own?\n\n[Written by MAL Rewrite]","background":"","season":null,"year":null,"broadcast":{"day":null,"time":null,"timezone":null,"string":null},"producers":[],"licensors":[],"studios":[],"genres":[{"mal_id":14,"type":"anime","name":"Horror","url":"https://myanimelist.net/anime/genre/14/Horror"}],"explicit_genres":[],"themes":[],"demographics":[]},{"mal_id":10578,"url":"https://myanimelist.net/anime/10578/C³","images":{"jpg":{"image_url":"https://cdn.myanimelist.net/images/anime/13/32285.jpg","small_image_url":"https://cdn.myanimelist.net/images/anime/13/32285t.jpg","large_image_url":"https://cdn.myanimelist.net/images/anime/13/32285l.jpg"},"webp":{"image_url":"https://cdn.myanimelist.net/images/anime/13/32285.webp","small_image_url":"https://cdn.myanimelist.net/images/anime/13/32285t.webp","large_image_url":"https://cdn.myanimelist.net/images/anime/13/32285l.webp"}},"trailer":{"youtube_id":null,"url":null,"embed_url":"https://www.youtube-nocookie.com/embed/xqad96ZyzNI?enablejsapi=1&wmode=opaque&autoplay=1","images":{"image_url":null,"small_image_url":null,"medium_image_url":null,"large_image_url":null,"maximum_image_url":null}},"approved":true,"titles":[{"type":"Default","title":"C³"},{"type":"Synonym","title":"C3"},{"type":"Synonym","title":"C Cube"},{"type":"Synonym","title":"C^3"},{"type":"Japanese","title":"シーキューブ"},{"type":"English","title":"C³ - CubexCursedxCurious"}],"title":"C³","title_english":"C³ - CubexCursedxCurious","title_japanese":"シーキューブ","title_synonyms":["C3","C Cube","C^3"],"type":"TV","source":"Light novel","episodes":12,"status":"Finished Airing","airing":false,"aired":{"from":"2011-10-01T00:00:00+00:00","to":"2011-12-17T00:00:00+00:00","prop":{"from":{"day":1,"month":10,"year":2011},"to":{"day":17,"month":12,"year":2011}},"string":"Oct 1, 2011 to Dec 17, 2011"},"duration":"24 min per ep","rating":"R - 17+ (violence & profanity)","score":6.59,"scored_by":85093,"rank":7679,"popularity":1507,"members":184626,"favorites":273,"synopsis":"From the light novel series written by Minase Hazuki, comes a story of love, action, and comedy. Yachi Haruaki is a high school boy who is naturally resistant to curses. After his father sends him a mysterious black cube, Haruaki awakes to find a nude girl named Fear standing in his kitchen. She’s the human form of the cursed black cube – and an instrument of torture! Utilizing her special abilities, Fear fights alongside Haruaki to defeat other cursed instruments and their owners.\n\n(Source: FUNimation)","background":"","season":"fall","year":2011,"broadcast":{"day":null,"time":null,"timezone":null,"string":"Unknown"},"producers":[{"mal_id":92,"type":"anime","name":"Starchild Records","url":"https://myanimelist.net/anime/producer/92/Starchild_Records"}],"licensors":[{"mal_id":102,"type":"anime","name":"Funimation","url":"https://myanimelist.net/anime/producer/102/Funimation"}],"studios":[{"mal_id":300,"type":"anime","name":"SILVER LINK.","url":"https://myanimelist.net/anime/producer/300/SILVER_LINK"}],"genres":[{"mal_id":1,"type":"anime","name":"Action","url":"https://myanimelist.net/anime/genre/1/Action"},{"mal_id":4,"type":"anime","name":"Comedy","url":"https://myanimelist.net/anime/genre/4/Comedy"},{"mal_id":37,"type":"anime","name":"Supernatural","url":"https://myanimelist.net/anime/genre/37/Supernatural"},{"mal_id":9,"type":"anime","name":"Ecchi","url":"https://myanimelist.net/anime/genre/9/Ecchi"}],"explicit_genres":[],"themes":[{"mal_id":35,"type":"anime","name":"Harem","url":"https://myanimelist.net/anime/genre/35/Harem"},{"mal_id":23,"type":"anime","name":"School","url":"https://myanimelist.net/anime/genre/23/School"}],"demographics":[]},{"mal_id":12505,"url":"https://myanimelist.net/anime/12505/C³__Rinkan_Gakkou_Confusion","images":{"jpg":{"image_url":"https://cdn.myanimelist.net/images/anime/8/79351.jpg","small_image_url":"https://cdn.myanimelist.net/images/anime/8/79351t.jpg","large_image_url":"https://cdn.myanimelist.net/images/anime/8/79351l.jpg"},"webp":{"image_url":"https://cdn.myanimelist.net/images/anime/8/79351.webp","small_image_url":"https://cdn.myanimelist.net/images/anime/8/79351t.webp","large_image_url":"https://cdn.myanimelist.net/images/anime/8/79351l.webp"}},"trailer":{"youtube_id":null,"url":null,"embed_url":null,"images":{"image_url":null,"small_image_url":null,"medium_image_url":null,"large_image_url":null,"maximum_image_url":null}},"approved":true,"titles":[{"type":"Default","title":"C³: Rinkan Gakkou Confusion!"},{"type":"Synonym","title":"C³ Special"},{"type":"Synonym","title":"C3 Special"},{"type":"Synonym","title":"C Cube Special"},{"type":"Synonym","title":"C^3"},{"type":"Synonym","title":"C³ Episode 13"},{"type":"Japanese","title":"-シーキューブ- 林間学校こんふゅーじょん!"},{"type":"English","title":"C³ - CubexCursedxCurious - Outdoor School Confusion"}],"title":"C³: Rinkan Gakkou Confusion!","title_english":"C³ - CubexCursedxCurious - Outdoor School Confusion","title_japanese":"-シーキューブ- 林間学校こんふゅーじょん!","title_synonyms":["C³ Special","C3 Special","C Cube Special","C^3","C³ Episode 13"],"type":"Special","source":"Light novel","episodes":1,"status":"Finished Airing","airing":false,"aired":{"from":"2012-04-25T00:00:00+00:00","to":null,"prop":{"from":{"day":25,"month":4,"year":2012},"to":{"day":null,"month":null,"year":null}},"string":"Apr 25, 2012"},"duration":"29 min","rating":"PG-13 - Teens 13 or older","score":6.69,"scored_by":15051,"rank":7058,"popularity":4736,"members":29319,"favorites":9,"synopsis":"Unaired episode included with the fifth volume of the Blu-ray. The gang goes on a school trip.","background":"","season":null,"year":null,"broadcast":{"day":null,"time":null,"timezone":null,"string":null},"producers":[],"licensors":[{"mal_id":102,"type":"anime","name":"Funimation","url":"https://myanimelist.net/anime/producer/102/Funimation"}],"studios":[{"mal_id":300,"type":"anime","name":"SILVER LINK.","url":"https://myanimelist.net/anime/producer/300/SILVER_LINK"}],"genres":[{"mal_id":1,"type":"anime","name":"Action","url":"https://myanimelist.net/anime/genre/1/Action"},{"mal_id":4,"type":"anime","name":"Comedy","url":"https://myanimelist.net/anime/genre/4/Comedy"},{"mal_id":37,"type":"anime","name":"Supernatural","url":"https://myanimelist.net/anime/genre/37/Supernatural"},{"mal_id":9,"type":"anime","name":"Ecchi","url":"https://myanimelist.net/anime/genre/9/Ecchi"}],"explicit_genres":[],"themes":[{"mal_id":35,"type":"anime","name":"Harem","url":"https://myanimelist.net/anime/genre/35/Harem"},{"mal_id":23,"type":"anime","name":"School","url":"https://myanimelist.net/anime/genre/23/School"}],"demographics":[]},{"mal_id":9650,"url":"https://myanimelist.net/anime/9650/Dream_C_Club_Pure_Songs_Clips","images":{"jpg":{"image_url":"https://cdn.myanimelist.net/images/anime/1921/104831.jpg","small_image_url":"https://cdn.myanimelist.net/images/anime/1921/104831t.jpg","large_image_url":"https://cdn.myanimelist.net/images/anime/1921/104831l.jpg"},"webp":{"image_url":"https://cdn.myanimelist.net/images/anime/1921/104831.webp","small_image_url":"https://cdn.myanimelist.net/images/anime/1921/104831t.webp","large_image_url":"https://cdn.myanimelist.net/images/anime/1921/104831l.webp"}},"trailer":{"youtube_id":null,"url":null,"embed_url":null,"images":{"image_url":null,"small_image_url":null,"medium_image_url":null,"large_image_url":null,"maximum_image_url":null}},"approved":true,"titles":[{"type":"Default","title":"Dream C Club Pure Songs Clips"},{"type":"Japanese","title":"DREAM C CLUB PURE SONGS CLIPS"}],"title":"Dream C Club Pure Songs Clips","title_english":null,"title_japanese":"DREAM C CLUB PURE SONGS CLIPS","title_synonyms":[],"type":"Music","source":"Game","episodes":6,"status":"Finished Airing","airing":false,"aired":{"from":"2010-11-10T00:00:00+00:00","to":"2010-12-10T00:00:00+00:00","prop":{"from":{"day":10,"month":11,"year":2010},"to":{"day":10,"month":12,"year":2010}},"string":"Nov 10, 2010 to Dec 10, 2010"},"duration":"2 min per ep","rating":"PG-13 - Teens 13 or older","score":5.47,"scored_by":339,"rank":null,"popularity":15864,"members":870,"favorites":0,"synopsis":"A two-volume DVD/CD collection of character songs and music videos of Xbox 360 dating simulation game Dream C Club. The clips recreate the heroines of the game with two-dimensional graphics. \n\n(Source: ANN)","background":"","season":null,"year":null,"broadcast":{"day":null,"time":null,"timezone":null,"string":null},"producers":[{"mal_id":31,"type":"anime","name":"Geneon Universal Entertainment","url":"https://myanimelist.net/anime/producer/31/Geneon_Universal_Entertainment"}],"licensors":[],"studios":[{"mal_id":439,"type":"anime","name":"Project No.9","url":"https://myanimelist.net/anime/producer/439/Project_No9"}],"genres":[],"explicit_genres":[],"themes":[{"mal_id":19,"type":"anime","name":"Music","url":"https://myanimelist.net/anime/genre/19/Music"},{"mal_id":11,"type":"anime","name":"Strategy Game","url":"https://myanimelist.net/anime/genre/11/Strategy_Game"}],"demographics":[]},{"mal_id":14117,"url":"https://myanimelist.net/anime/14117/Blood-C__Special_Edition","images":{"jpg":{"image_url":"https://cdn.myanimelist.net/images/anime/11/39001.jpg","small_image_url":"https://cdn.myanimelist.net/images/anime/11/39001t.jpg","large_image_url":"https://cdn.myanimelist.net/images/anime/11/39001l.jpg"},"webp":{"image_url":"https://cdn.myanimelist.net/images/anime/11/39001.webp","small_image_url":"https://cdn.myanimelist.net/images/anime/11/39001t.webp","large_image_url":"https://cdn.myanimelist.net/images/anime/11/39001l.webp"}},"trailer":{"youtube_id":null,"url":null,"embed_url":null,"images":{"image_url":null,"small_image_url":null,"medium_image_url":null,"large_image_url":null,"maximum_image_url":null}},"approved":true,"titles":[{"type":"Default","title":"Blood-C: Special Edition"},{"type":"Synonym","title":"Blood-C: Tokubetsu Henshuu Version"},{"type":"Japanese","title":"『BLOOD-C』特別編集ver"}],"title":"Blood-C: Special Edition","title_english":null,"title_japanese":"『BLOOD-C』特別編集ver","title_synonyms":["Blood-C: Tokubetsu Henshuu Version"],"type":"Special","source":"Original","episodes":2,"status":"Finished Airing","airing":false,"aired":{"from":"2012-05-26T00:00:00+00:00","to":"2012-05-30T00:00:00+00:00","prop":{"from":{"day":26,"month":5,"year":2012},"to":{"day":30,"month":5,"year":2012}},"string":"May 26, 2012 to May 30, 2012"},"duration":"25 min per ep","rating":"R - 17+ (violence & profanity)","score":6.76,"scored_by":5537,"rank":6614,"popularity":5342,"members":22062,"favorites":31,"synopsis":"Two summary episodes of the TV series that are airing prior to Blood-C: The Last Dark.  They will feature secret content that was never aired during the TV series' run.","background":"","season":null,"year":null,"broadcast":{"day":null,"time":null,"timezone":null,"string":null},"producers":[],"licensors":[],"studios":[{"mal_id":10,"type":"anime","name":"Production I.G","url":"https://myanimelist.net/anime/producer/10/Production_IG"}],"genres":[{"mal_id":1,"type":"anime","name":"Action","url":"https://myanimelist.net/anime/genre/1/Action"},{"mal_id":14,"type":"anime","name":"Horror","url":"https://myanimelist.net/anime/genre/14/Horror"},{"mal_id":37,"type":"anime","name":"Supernatural","url":"https://myanimelist.net/anime/genre/37/Supernatural"}],"explicit_genres":[],"themes":[{"mal_id":58,"type":"anime","name":"Gore","url":"https://myanimelist.net/anime/genre/58/Gore"},{"mal_id":23,"type":"anime","name":"School","url":"https://myanimelist.net/anime/genre/23/School"},{"mal_id":32,"type":"anime","name":"Vampire","url":"https://myanimelist.net/anime/genre/32/Vampire"}],"demographics":[]}]}}