{"ts":1779953741675,"data":{"pagination":{"last_visible_page":13,"has_next_page":true,"current_page":1,"items":{"count":8,"total":100,"per_page":8}},"data":[{"mal_id":16331,"url":"https://myanimelist.net/anime/16331/Next_A-Class","images":{"jpg":{"image_url":"https://cdn.myanimelist.net/images/anime/4/44099.jpg","small_image_url":"https://cdn.myanimelist.net/images/anime/4/44099t.jpg","large_image_url":"https://cdn.myanimelist.net/images/anime/4/44099l.jpg"},"webp":{"image_url":"https://cdn.myanimelist.net/images/anime/4/44099.webp","small_image_url":"https://cdn.myanimelist.net/images/anime/4/44099t.webp","large_image_url":"https://cdn.myanimelist.net/images/anime/4/44099l.webp"}},"trailer":{"youtube_id":null,"url":null,"embed_url":null,"images":{"image_url":null,"small_image_url":null,"medium_image_url":null,"large_image_url":null,"maximum_image_url":null}},"approved":true,"titles":[{"type":"Default","title":"Next A-Class"},{"type":"Japanese","title":"NEXT A-Class"}],"title":"Next A-Class","title_english":null,"title_japanese":"NEXT A-Class","title_synonyms":[],"type":"CM","source":"Original","episodes":1,"status":"Finished Airing","airing":false,"aired":{"from":"2012-11-17T00:00:00+00:00","to":null,"prop":{"from":{"day":17,"month":11,"year":2012},"to":{"day":null,"month":null,"year":null}},"string":"Nov 17, 2012"},"duration":"6 min","rating":"PG-13 - Teens 13 or older","score":6.36,"scored_by":4895,"rank":null,"popularity":7618,"members":9023,"favorites":9,"synopsis":"In the not so distant future, to cope with the traffic jams and verticalization due to the increased population, the city of Tokyo was reconstructed under the theme of city sharing in which people share the urbane space by transforming the roads and city structure by time of the day. A woman named Nico is walking in the city. She is having her long-awaited day off; however, she does not know what to do and who to hang out with. She hopes an exciting thing suddenly happens.\n\nThen, a truck passes right before her eyes. The loud music and flashy decoration of the vehicle reminds Nico the car it that everyone's talking about on the internet. As soon as Nico sees it, she runs after it, then runs into Gatsu and Makito. Nico gets in their latest A-Class and they chase after the truck driving through the city that is changing its form rapidly.\n\n(Source: AniDB)","background":"","season":null,"year":null,"broadcast":{"day":null,"time":null,"timezone":null,"string":null},"producers":[],"licensors":[],"studios":[{"mal_id":10,"type":"anime","name":"Production I.G","url":"https://myanimelist.net/anime/producer/10/Production_IG"}],"genres":[{"mal_id":1,"type":"anime","name":"Action","url":"https://myanimelist.net/anime/genre/1/Action"},{"mal_id":24,"type":"anime","name":"Sci-Fi","url":"https://myanimelist.net/anime/genre/24/Sci-Fi"}],"explicit_genres":[],"themes":[{"mal_id":3,"type":"anime","name":"Racing","url":"https://myanimelist.net/anime/genre/3/Racing"}],"demographics":[]},{"mal_id":32384,"url":"https://myanimelist.net/anime/32384/The_New_A-Class__Next_Stage_with_YOU","images":{"jpg":{"image_url":"https://cdn.myanimelist.net/images/anime/13/77724.jpg","small_image_url":"https://cdn.myanimelist.net/images/anime/13/77724t.jpg","large_image_url":"https://cdn.myanimelist.net/images/anime/13/77724l.jpg"},"webp":{"image_url":"https://cdn.myanimelist.net/images/anime/13/77724.webp","small_image_url":"https://cdn.myanimelist.net/images/anime/13/77724t.webp","large_image_url":"https://cdn.myanimelist.net/images/anime/13/77724l.webp"}},"trailer":{"youtube_id":null,"url":null,"embed_url":null,"images":{"image_url":null,"small_image_url":null,"medium_image_url":null,"large_image_url":null,"maximum_image_url":null}},"approved":true,"titles":[{"type":"Default","title":"The New A-Class.: Next Stage with YOU"},{"type":"Synonym","title":"Mercedes-Benz x Perfume"},{"type":"Japanese","title":"The new A-Class. -Next Stage with YOU-"}],"title":"The New A-Class.: Next Stage with YOU","title_english":null,"title_japanese":"The new A-Class. -Next Stage with YOU-","title_synonyms":["Mercedes-Benz x Perfume"],"type":"CM","source":"Original","episodes":1,"status":"Finished Airing","airing":false,"aired":{"from":"2015-11-25T00:00:00+00:00","to":null,"prop":{"from":{"day":25,"month":11,"year":2015},"to":{"day":null,"month":null,"year":null}},"string":"Nov 25, 2015"},"duration":"30 sec","rating":"G - All Ages","score":4.89,"scored_by":834,"rank":null,"popularity":13335,"members":1676,"favorites":0,"synopsis":"Mercedes-Benz's newest commercial for the A-Class car line featuring the girl group Perfume as CGI songstresses.","background":"","season":null,"year":null,"broadcast":{"day":null,"time":null,"timezone":null,"string":null},"producers":[],"licensors":[],"studios":[],"genres":[],"explicit_genres":[],"themes":[{"mal_id":19,"type":"anime","name":"Music","url":"https://myanimelist.net/anime/genre/19/Music"},{"mal_id":3,"type":"anime","name":"Racing","url":"https://myanimelist.net/anime/genre/3/Racing"}],"demographics":[]},{"mal_id":55929,"url":"https://myanimelist.net/anime/55929/S-Class_SKZOO_ver","images":{"jpg":{"image_url":"https://cdn.myanimelist.net/images/anime/1423/137092.jpg","small_image_url":"https://cdn.myanimelist.net/images/anime/1423/137092t.jpg","large_image_url":"https://cdn.myanimelist.net/images/anime/1423/137092l.jpg"},"webp":{"image_url":"https://cdn.myanimelist.net/images/anime/1423/137092.webp","small_image_url":"https://cdn.myanimelist.net/images/anime/1423/137092t.webp","large_image_url":"https://cdn.myanimelist.net/images/anime/1423/137092l.webp"}},"trailer":{"youtube_id":null,"url":null,"embed_url":null,"images":{"image_url":null,"small_image_url":null,"medium_image_url":null,"large_image_url":null,"maximum_image_url":null}},"approved":true,"titles":[{"type":"Default","title":"S-Class (SKZOO ver.)"},{"type":"Japanese","title":"특S-Class (SKZOO ver.)"}],"title":"S-Class (SKZOO ver.)","title_english":null,"title_japanese":"특S-Class (SKZOO ver.)","title_synonyms":[],"type":"Music","source":"Original","episodes":1,"status":"Finished Airing","airing":false,"aired":{"from":"2023-07-02T00:00:00+00:00","to":null,"prop":{"from":{"day":2,"month":7,"year":2023},"to":{"day":null,"month":null,"year":null}},"string":"Jul 2, 2023"},"duration":"3 min","rating":"G - All Ages","score":6.28,"scored_by":151,"rank":null,"popularity":21798,"members":284,"favorites":1,"synopsis":"SKZOO performance animation for Stray Kids' song S-Class.","background":"","season":null,"year":null,"broadcast":{"day":null,"time":null,"timezone":null,"string":null},"producers":[{"mal_id":3184,"type":"anime","name":"JYP Entertainment","url":"https://myanimelist.net/anime/producer/3184/JYP_Entertainment"}],"licensors":[],"studios":[],"genres":[],"explicit_genres":[],"themes":[{"mal_id":51,"type":"anime","name":"Anthropomorphic","url":"https://myanimelist.net/anime/genre/51/Anthropomorphic"},{"mal_id":61,"type":"anime","name":"Idols (Male)","url":"https://myanimelist.net/anime/genre/61/Idols_Male"},{"mal_id":19,"type":"anime","name":"Music","url":"https://myanimelist.net/anime/genre/19/Music"}],"demographics":[]},{"mal_id":59135,"url":"https://myanimelist.net/anime/59135/Class_no_Daikirai_na_Joshi_to_Kekkon_suru_Koto_ni_Natta","images":{"jpg":{"image_url":"https://cdn.myanimelist.net/images/anime/1775/147330.jpg","small_image_url":"https://cdn.myanimelist.net/images/anime/1775/147330t.jpg","large_image_url":"https://cdn.myanimelist.net/images/anime/1775/147330l.jpg"},"webp":{"image_url":"https://cdn.myanimelist.net/images/anime/1775/147330.webp","small_image_url":"https://cdn.myanimelist.net/images/anime/1775/147330t.webp","large_image_url":"https://cdn.myanimelist.net/images/anime/1775/147330l.webp"}},"trailer":{"youtube_id":null,"url":null,"embed_url":"https://www.youtube-nocookie.com/embed/RgyqkGLsZ2M?enablejsapi=1&wmode=opaque&autoplay=1","images":{"image_url":null,"small_image_url":null,"medium_image_url":null,"large_image_url":null,"maximum_image_url":null}},"approved":true,"titles":[{"type":"Default","title":"Class no Daikirai na Joshi to Kekkon suru Koto ni Natta."},{"type":"Synonym","title":"Kurakon"},{"type":"Synonym","title":"I Got Married to the Girl I Hate Most in Class"},{"type":"Japanese","title":"クラスの大嫌いな女子と結婚することになった。"},{"type":"English","title":"I'm Getting Married to a Girl I Hate in My Class"}],"title":"Class no Daikirai na Joshi to Kekkon suru Koto ni Natta.","title_english":"I'm Getting Married to a Girl I Hate in My Class","title_japanese":"クラスの大嫌いな女子と結婚することになった。","title_synonyms":["Kurakon","I Got Married to the Girl I Hate Most in Class"],"type":"TV","source":"Light novel","episodes":12,"status":"Finished Airing","airing":false,"aired":{"from":"2025-01-03T00:00:00+00:00","to":"2025-03-21T00:00:00+00:00","prop":{"from":{"day":3,"month":1,"year":2025},"to":{"day":21,"month":3,"year":2025}},"string":"Jan 3, 2025 to Mar 21, 2025"},"duration":"23 min per ep","rating":"PG-13 - Teens 13 or older","score":6.74,"scored_by":81433,"rank":6742,"popularity":1631,"members":168880,"favorites":878,"synopsis":"There is only one person that high school student Saito Houjou truly cannot stand—and that is his temperamental classmate, Akane Sakuramori. The two have always been on bad terms; their contrasting views and personalities only lead to endless fighting. However, everything changes when Saito's grandfather and Akane's grandmother arrange a sudden meeting and insist that the two get married!\n\nWalking down the aisle is the last thing Saito and Akane want, but they are quickly coerced into accepting the ridiculous plan and soon move into a shared house as husband and wife. Although Saito and Akane despise each other, navigating life together under the same roof may just turn their bitter hatred into everlasting love.\n\n[Written by MAL Rewrite]","background":"","season":"winter","year":2025,"broadcast":{"day":"Fridays","time":"23:30","timezone":"Asia/Tokyo","string":"Fridays at 23:30 (JST)"},"producers":[{"mal_id":17,"type":"anime","name":"Aniplex","url":"https://myanimelist.net/anime/producer/17/Aniplex"},{"mal_id":166,"type":"anime","name":"Movic","url":"https://myanimelist.net/anime/producer/166/Movic"},{"mal_id":306,"type":"anime","name":"Magic Capsule","url":"https://myanimelist.net/anime/producer/306/Magic_Capsule"},{"mal_id":1211,"type":"anime","name":"Tokyo MX","url":"https://myanimelist.net/anime/producer/1211/Tokyo_MX"},{"mal_id":1416,"type":"anime","name":"BS11","url":"https://myanimelist.net/anime/producer/1416/BS11"},{"mal_id":1444,"type":"anime","name":"Egg Firm","url":"https://myanimelist.net/anime/producer/1444/Egg_Firm"},{"mal_id":1696,"type":"anime","name":"Kadokawa","url":"https://myanimelist.net/anime/producer/1696/Kadokawa"}],"licensors":[],"studios":[{"mal_id":418,"type":"anime","name":"Studio Gokumi","url":"https://myanimelist.net/anime/producer/418/Studio_Gokumi"},{"mal_id":1299,"type":"anime","name":"AXsiZ","url":"https://myanimelist.net/anime/producer/1299/AXsiZ"}],"genres":[{"mal_id":4,"type":"anime","name":"Comedy","url":"https://myanimelist.net/anime/genre/4/Comedy"},{"mal_id":22,"type":"anime","name":"Romance","url":"https://myanimelist.net/anime/genre/22/Romance"}],"explicit_genres":[],"themes":[],"demographics":[]},{"mal_id":56734,"url":"https://myanimelist.net/anime/56734/Class_de_2-banme_ni_Kawaii_Onnanoko_to_Tomodachi_ni_Natta","images":{"jpg":{"image_url":"https://cdn.myanimelist.net/images/anime/1423/155713.jpg","small_image_url":"https://cdn.myanimelist.net/images/anime/1423/155713t.jpg","large_image_url":"https://cdn.myanimelist.net/images/anime/1423/155713l.jpg"},"webp":{"image_url":"https://cdn.myanimelist.net/images/anime/1423/155713.webp","small_image_url":"https://cdn.myanimelist.net/images/anime/1423/155713t.webp","large_image_url":"https://cdn.myanimelist.net/images/anime/1423/155713l.webp"}},"trailer":{"youtube_id":null,"url":null,"embed_url":"https://www.youtube-nocookie.com/embed/ICOxQWf8zFU?enablejsapi=1&wmode=opaque&autoplay=1","images":{"image_url":null,"small_image_url":null,"medium_image_url":null,"large_image_url":null,"maximum_image_url":null}},"approved":true,"titles":[{"type":"Default","title":"Class de 2-banme ni Kawaii Onnanoko to Tomodachi ni Natta"},{"type":"Synonym","title":"I Became Friends with the Second Cutest Girl in the Class."},{"type":"Synonym","title":"Kuranika"},{"type":"Japanese","title":"クラスで2番目に可愛い女の子と友だちになった"},{"type":"English","title":"I Made Friends with the Second Prettiest Girl in My Class"}],"title":"Class de 2-banme ni Kawaii Onnanoko to Tomodachi ni Natta","title_english":"I Made Friends with the Second Prettiest Girl in My Class","title_japanese":"クラスで2番目に可愛い女の子と友だちになった","title_synonyms":["I Became Friends with the Second Cutest Girl in the Class.","Kuranika"],"type":"TV","source":"Light novel","episodes":12,"status":"Currently Airing","airing":true,"aired":{"from":"2026-04-07T00:00:00+00:00","to":"2026-06-23T00:00:00+00:00","prop":{"from":{"day":7,"month":4,"year":2026},"to":{"day":23,"month":6,"year":2026}},"string":"Apr 7, 2026 to Jun 23, 2026"},"duration":"23 min per ep","rating":"PG-13 - Teens 13 or older","score":7.91,"scored_by":17810,"rank":918,"popularity":2258,"members":108415,"favorites":631,"synopsis":"I, Maehara Maki, struggled to connect with anyone during my high school years, finding it hard to make friends. Then, a turning point arrived. A girl named Asanagi entered my life. Despite being clandestinely referred to as the \"second cutest girl in class\" by the boys, she chose to spend her Fridays with me instead of her best friend Amami, who held the \"cutest girl in class\" title. In the comfort of my home, we delved into the realm of games, watched movies, immersed ourselves in manga, indulged in junk food—pizza, hamburgers—and guzzled cola, carefree and content. To the outside world, we might have seemed a bit messy, but to both Asanagi and me, it was a cherished, hidden time together.\n\n(Source: MAL News)","background":"","season":"spring","year":2026,"broadcast":{"day":"Tuesdays","time":"23:30","timezone":"Asia/Tokyo","string":"Tuesdays at 23:30 (JST)"},"producers":[{"mal_id":323,"type":"anime","name":"Nippon Columbia","url":"https://myanimelist.net/anime/producer/323/Nippon_Columbia"},{"mal_id":460,"type":"anime","name":"KlockWorx","url":"https://myanimelist.net/anime/producer/460/KlockWorx"},{"mal_id":517,"type":"anime","name":"Asmik Ace","url":"https://myanimelist.net/anime/producer/517/Asmik_Ace"},{"mal_id":1412,"type":"anime","name":"Kansai TV","url":"https://myanimelist.net/anime/producer/1412/Kansai_TV"},{"mal_id":1696,"type":"anime","name":"Kadokawa","url":"https://myanimelist.net/anime/producer/1696/Kadokawa"},{"mal_id":2074,"type":"anime","name":"Bit grooove promotion","url":"https://myanimelist.net/anime/producer/2074/Bit_grooove_promotion"},{"mal_id":2185,"type":"anime","name":"BS Asahi","url":"https://myanimelist.net/anime/producer/2185/BS_Asahi"}],"licensors":[],"studios":[{"mal_id":957,"type":"anime","name":"Connect","url":"https://myanimelist.net/anime/producer/957/Connect"}],"genres":[{"mal_id":22,"type":"anime","name":"Romance","url":"https://myanimelist.net/anime/genre/22/Romance"}],"explicit_genres":[],"themes":[{"mal_id":23,"type":"anime","name":"School","url":"https://myanimelist.net/anime/genre/23/School"}],"demographics":[]},{"mal_id":53069,"url":"https://myanimelist.net/anime/53069/Afternoon_Class","images":{"jpg":{"image_url":"https://cdn.myanimelist.net/images/anime/1645/128051.jpg","small_image_url":"https://cdn.myanimelist.net/images/anime/1645/128051t.jpg","large_image_url":"https://cdn.myanimelist.net/images/anime/1645/128051l.jpg"},"webp":{"image_url":"https://cdn.myanimelist.net/images/anime/1645/128051.webp","small_image_url":"https://cdn.myanimelist.net/images/anime/1645/128051t.webp","large_image_url":"https://cdn.myanimelist.net/images/anime/1645/128051l.webp"}},"trailer":{"youtube_id":null,"url":null,"embed_url":null,"images":{"image_url":null,"small_image_url":null,"medium_image_url":null,"large_image_url":null,"maximum_image_url":null}},"approved":true,"titles":[{"type":"Default","title":"Afternoon Class"},{"type":"Japanese","title":"애프터눈 클래스"},{"type":"English","title":"Afternoon Class"}],"title":"Afternoon Class","title_english":"Afternoon Class","title_japanese":"애프터눈 클래스","title_synonyms":[],"type":"Movie","source":"Original","episodes":1,"status":"Finished Airing","airing":false,"aired":{"from":"2015-10-31T00:00:00+00:00","to":null,"prop":{"from":{"day":31,"month":10,"year":2015},"to":{"day":null,"month":null,"year":null}},"string":"Oct 31, 2015"},"duration":"3 min","rating":"PG-13 - Teens 13 or older","score":6.71,"scored_by":252,"rank":6932,"popularity":18420,"members":517,"favorites":0,"synopsis":"A student is trying to stay awake in an afternoon class.\n\n(Source: IMDB)","background":"","season":null,"year":null,"broadcast":{"day":null,"time":null,"timezone":null,"string":null},"producers":[],"licensors":[],"studios":[],"genres":[{"mal_id":4,"type":"anime","name":"Comedy","url":"https://myanimelist.net/anime/genre/4/Comedy"}],"explicit_genres":[],"themes":[{"mal_id":23,"type":"anime","name":"School","url":"https://myanimelist.net/anime/genre/23/School"}],"demographics":[]},{"mal_id":34312,"url":"https://myanimelist.net/anime/34312/Saimin_Class","images":{"jpg":{"image_url":"https://cdn.myanimelist.net/images/anime/1039/104323.jpg","small_image_url":"https://cdn.myanimelist.net/images/anime/1039/104323t.jpg","large_image_url":"https://cdn.myanimelist.net/images/anime/1039/104323l.jpg"},"webp":{"image_url":"https://cdn.myanimelist.net/images/anime/1039/104323.webp","small_image_url":"https://cdn.myanimelist.net/images/anime/1039/104323t.webp","large_image_url":"https://cdn.myanimelist.net/images/anime/1039/104323l.webp"}},"trailer":{"youtube_id":null,"url":null,"embed_url":null,"images":{"image_url":null,"small_image_url":null,"medium_image_url":null,"large_image_url":null,"maximum_image_url":null}},"approved":true,"titles":[{"type":"Default","title":"Saimin Class"},{"type":"Synonym","title":"Saimin Class: Joshi Zen'in"},{"type":"Synonym","title":"Shiranai Uchi ni Ninshin Shitemashita"},{"type":"Japanese","title":"催眠クラス"}],"title":"Saimin Class","title_english":null,"title_japanese":"催眠クラス","title_synonyms":["Saimin Class: Joshi Zen'in","Shiranai Uchi ni Ninshin Shitemashita"],"type":"OVA","source":"Visual novel","episodes":2,"status":"Finished Airing","airing":false,"aired":{"from":"2016-12-23T00:00:00+00:00","to":"2017-02-10T00:00:00+00:00","prop":{"from":{"day":23,"month":12,"year":2016},"to":{"day":10,"month":2,"year":2017}},"string":"Dec 23, 2016 to Feb 10, 2017"},"duration":"18 min per ep","rating":"Rx - Hentai","score":6.42,"scored_by":3171,"rank":null,"popularity":7685,"members":8845,"favorites":26,"synopsis":null,"background":"","season":null,"year":null,"broadcast":{"day":null,"time":null,"timezone":null,"string":null},"producers":[{"mal_id":461,"type":"anime","name":"OLE-M","url":"https://myanimelist.net/anime/producer/461/OLE-M"},{"mal_id":1351,"type":"anime","name":"EDGE","url":"https://myanimelist.net/anime/producer/1351/EDGE"}],"licensors":[],"studios":[{"mal_id":1093,"type":"anime","name":"BreakBottle","url":"https://myanimelist.net/anime/producer/1093/BreakBottle"}],"genres":[{"mal_id":12,"type":"anime","name":"Hentai","url":"https://myanimelist.net/anime/genre/12/Hentai"}],"explicit_genres":[],"themes":[],"demographics":[]},{"mal_id":6959,"url":"https://myanimelist.net/anime/6959/GA__Geijutsuka_Art_Design_Class_-_Aozora_ga_Kakitai","images":{"jpg":{"image_url":"https://cdn.myanimelist.net/images/anime/1463/153612.jpg","small_image_url":"https://cdn.myanimelist.net/images/anime/1463/153612t.jpg","large_image_url":"https://cdn.myanimelist.net/images/anime/1463/153612l.jpg"},"webp":{"image_url":"https://cdn.myanimelist.net/images/anime/1463/153612.webp","small_image_url":"https://cdn.myanimelist.net/images/anime/1463/153612t.webp","large_image_url":"https://cdn.myanimelist.net/images/anime/1463/153612l.webp"}},"trailer":{"youtube_id":null,"url":null,"embed_url":null,"images":{"image_url":null,"small_image_url":null,"medium_image_url":null,"large_image_url":null,"maximum_image_url":null}},"approved":true,"titles":[{"type":"Default","title":"GA: Geijutsuka Art Design Class - Aozora ga Kakitai"},{"type":"Synonym","title":"GA: Geijutsuka Art Design Class OVA"},{"type":"Synonym","title":"GA: ADC OVA"},{"type":"Japanese","title":"GA 芸術科アートデザインクラス 青空が描きたい"}],"title":"GA: Geijutsuka Art Design Class - Aozora ga Kakitai","title_english":null,"title_japanese":"GA 芸術科アートデザインクラス 青空が描きたい","title_synonyms":["GA: Geijutsuka Art Design Class OVA","GA: ADC OVA"],"type":"OVA","source":"4-koma manga","episodes":1,"status":"Finished Airing","airing":false,"aired":{"from":"2010-04-02T00:00:00+00:00","to":null,"prop":{"from":{"day":2,"month":4,"year":2010},"to":{"day":null,"month":null,"year":null}},"string":"Apr 2, 2010"},"duration":"24 min","rating":"PG-13 - Teens 13 or older","score":7.06,"scored_by":2450,"rank":4907,"popularity":9385,"members":5314,"favorites":1,"synopsis":"GA: Geijutsuka Art Design Class OVA. \"I Want to Draw the Blue Sky\"","background":"","season":null,"year":null,"broadcast":{"day":null,"time":null,"timezone":null,"string":null},"producers":[],"licensors":[],"studios":[{"mal_id":292,"type":"anime","name":"AIC PLUS+","url":"https://myanimelist.net/anime/producer/292/AIC_PLUS_"}],"genres":[{"mal_id":36,"type":"anime","name":"Slice of Life","url":"https://myanimelist.net/anime/genre/36/Slice_of_Life"}],"explicit_genres":[],"themes":[{"mal_id":52,"type":"anime","name":"CGDCT","url":"https://myanimelist.net/anime/genre/52/CGDCT"},{"mal_id":23,"type":"anime","name":"School","url":"https://myanimelist.net/anime/genre/23/School"},{"mal_id":80,"type":"anime","name":"Visual Arts","url":"https://myanimelist.net/anime/genre/80/Visual_Arts"}],"demographics":[]}]}}